{
  "project_info": {
    "project_number": "900790170885",
    "project_id": "masstv-299308",
    "storage_bucket": "masstv-299308.appspot.com"
  },
  "client": [
    {
      "client_info": {
        "mobilesdk_app_id": "1:900790170885:android:eb6f5cfa3780e68188336c",
        "android_client_info": {
          "package_name": "com.desi.original.masstv"
        }
      },
      "oauth_client": [
        {
          "client_id": "900790170885-okog00ck95540sk2vvcoupalobkm41bb.apps.googleusercontent.com",
          "client_type": 3
        }
      ],
      "api_key": [
        {
          "current_key": "AIzaSyBmEIlNVPrawwymRGYyELzXzwWfXTF1EeE"
        }
      ],
      "services": {
        "appinvite_service": {
          "other_platform_oauth_client": [
            {
              "client_id": "900790170885-okog00ck95540sk2vvcoupalobkm41bb.apps.googleusercontent.com",
              "client_type": 3
            },
            {
              "client_id": "900790170885-c96s2m7ng5i6cb36q06s5572rgs7bnsj.apps.googleusercontent.com",
              "client_type": 2,
              "ios_info": {
                "bundle_id": "com.MassTv.com.MassTv"
              }
            }
          ]
        }
      }
    }
  ],
  "configuration_version": "1"
}